﻿Log file open, 01/27/20 14:12:00
LogWindows: Failed to load 'aqProf.dll' (GetLastError=126)
LogWindows: File 'aqProf.dll' does not exist
LogWindows: Failed to load 'VtuneApi.dll' (GetLastError=126)
LogWindows: File 'VtuneApi.dll' does not exist
LogWindows: Failed to load 'VtuneApi32e.dll' (GetLastError=126)
LogWindows: File 'VtuneApi32e.dll' does not exist
LogConsoleResponse: Display: Failed to find resolution value strings in scalability ini. Falling back to default.
LogInit: Display: Running engine for game: MyProject8
LogPlatformFile: Not using cached read wrapper
LogTaskGraph: Started task graph with 5 named threads and 35 total threads with 3 sets of task threads.
LogStats: Stats thread started at 0.063567
LogD3D11RHI: Loaded GFSDK_Aftermath_Lib.x64.dll
LogICUInternationalization: ICU TimeZone Detection - Raw Offset: +3:00, Platform Override: ''
LogPluginManager: Mounting plugin Paper2D
LogPluginManager: Mounting plugin AISupport
LogPluginManager: Mounting plugin LightPropagationVolume
LogPluginManager: Mounting plugin ActorLayerUtilities
LogPluginManager: Mounting plugin AnimationSharing
LogPluginManager: Mounting plugin CLionSourceCodeAccess
LogPluginManager: Mounting plugin CodeLiteSourceCodeAccess
LogPluginManager: Mounting plugin GitSourceControl
LogPluginManager: Mounting plugin KDevelopSourceCodeAccess
LogPluginManager: Mounting plugin NullSourceCodeAccess
LogPluginManager: Mounting plugin PerforceSourceControl
LogPluginManager: Mounting plugin SubversionSourceControl
LogPluginManager: Mounting plugin UObjectPlugin
LogPluginManager: Mounting plugin VisualStudioCodeSourceCodeAccess
LogPluginManager: Mounting plugin VisualStudioSourceCodeAccess
LogPluginManager: Mounting plugin XCodeSourceCodeAccess
LogPluginManager: Mounting plugin AssetManagerEditor
LogPluginManager: Mounting plugin CryptoKeys
LogPluginManager: Mounting plugin CurveEditorTools
LogPluginManager: Mounting plugin DataValidation
LogPluginManager: Mounting plugin FacialAnimation
LogPluginManager: Mounting plugin GameplayTagsEditor
LogPluginManager: Mounting plugin MacGraphicsSwitching
LogPluginManager: Mounting plugin MaterialAnalyzer
LogPluginManager: Mounting plugin MobileLauncherProfileWizard
LogPluginManager: Mounting plugin PluginBrowser
LogPluginManager: Mounting plugin SpeedTreeImporter
LogPluginManager: Mounting plugin DatasmithContent
LogPluginManager: Mounting plugin VariantManagerContent
LogPluginManager: Mounting plugin AlembicImporter
LogPluginManager: Mounting plugin AutomationUtils
LogPluginManager: Mounting plugin BackChannel
LogPluginManager: Mounting plugin CharacterAI
LogPluginManager: Mounting plugin GeometryCache
LogPluginManager: Mounting plugin HTML5Networking
LogPluginManager: Mounting plugin PlatformCrypto
LogPluginManager: Mounting plugin ProxyLODPlugin
LogPluginManager: Mounting plugin SkeletalReduction
LogPluginManager: Mounting plugin MagicLeap
LogPluginManager: Mounting plugin MagicLeapMedia
LogPluginManager: Mounting plugin AndroidMedia
LogPluginManager: Mounting plugin AvfMedia
LogPluginManager: Mounting plugin ImgMedia
LogPluginManager: Mounting plugin MediaCompositing
LogPluginManager: Mounting plugin MediaPlayerEditor
LogPluginManager: Mounting plugin WebMMedia
LogPluginManager: Mounting plugin WmfMedia
LogPluginManager: Mounting plugin TcpMessaging
LogPluginManager: Mounting plugin UdpMessaging
LogPluginManager: Mounting plugin ActorSequence
LogPluginManager: Mounting plugin LevelSequenceEditor
LogPluginManager: Mounting plugin MatineeToLevelSequence
LogPluginManager: Mounting plugin NetcodeUnitTest
LogPluginManager: Mounting plugin NUTUnrealEngine4
LogPluginManager: Mounting plugin OnlineSubsystemGooglePlay
LogPluginManager: Mounting plugin OnlineSubsystemIOS
LogPluginManager: Mounting plugin OnlineSubsystem
LogPluginManager: Mounting plugin OnlineSubsystemNull
LogPluginManager: Mounting plugin OnlineSubsystemUtils
LogPluginManager: Mounting plugin LauncherChunkInstaller
LogPluginManager: Mounting plugin AndroidDeviceProfileSelector
LogPluginManager: Mounting plugin AndroidMoviePlayer
LogPluginManager: Mounting plugin AndroidPermission
LogPluginManager: Mounting plugin AppleImageUtils
LogPluginManager: Mounting plugin AppleMoviePlayer
LogPluginManager: Mounting plugin ArchVisCharacter
LogPluginManager: Mounting plugin AudioCapture
LogPluginManager: Mounting plugin CableComponent
LogPluginManager: Mounting plugin CustomMeshComponent
LogPluginManager: Mounting plugin EditableMesh
LogPluginManager: Mounting plugin ExampleDeviceProfileSelector
LogPluginManager: Mounting plugin GoogleCloudMessaging
LogPluginManager: Mounting plugin IOSDeviceProfileSelector
LogPluginManager: Mounting plugin LinuxDeviceProfileSelector
LogPluginManager: Mounting plugin LocationServicesBPLibrary
LogPluginManager: Mounting plugin MobilePatchingUtils
LogPluginManager: Mounting plugin OculusVR
LogPluginManager: Mounting plugin PhysXVehicles
LogPluginManager: Mounting plugin ProceduralMeshComponent
LogPluginManager: Mounting plugin RuntimePhysXCooking
LogPluginManager: Mounting plugin SignificanceManager
LogPluginManager: Mounting plugin SteamVR
LogPluginManager: Mounting plugin WebMMoviePlayer
LogPluginManager: Mounting plugin WindowsMoviePlayer
LogPluginManager: Mounting plugin ScreenshotTools
LogInit: Using libcurl 7.55.1-DEV
LogInit:  - built for x86_64-pc-win32
LogInit:  - supports SSL with OpenSSL/1.1.1
LogInit:  - supports HTTP deflate (compression) using libz 1.2.8
LogInit:  - other features:
LogInit:      CURL_VERSION_SSL
LogInit:      CURL_VERSION_LIBZ
LogInit:      CURL_VERSION_IPV6
LogInit:      CURL_VERSION_ASYNCHDNS
LogInit:      CURL_VERSION_LARGEFILE
LogInit:      CURL_VERSION_IDN
LogInit:  CurlRequestOptions (configurable via config and command line):
LogInit:  - bVerifyPeer = true  - Libcurl will verify peer certificate
LogInit:  - bUseHttpProxy = false  - Libcurl will NOT use HTTP proxy
LogInit:  - bDontReuseConnections = false  - Libcurl will reuse connections
LogInit:  - MaxHostConnections = 16  - Libcurl will limit the number of connections to a host
LogInit:  - LocalHostAddr = Default
LogInit:  - BufferSize = 65536
LogOnline: OSS: Creating online subsystem instance for: NULL
LogInit: WinSock: version 1.1 (2.2), MaxSocks=32767, MaxUdp=65467
LogInit: Build: ++UE4+Release-4.23-CL-9631420
LogInit: Engine Version: 4.23.1-9631420+++UE4+Release-4.23
LogInit: Compatible Engine Version: 4.23.0-8386587+++UE4+Release-4.23
LogInit: Net CL: 8386587
LogInit: OS: Windows 10 (Release 1903) (), CPU: Intel(R) Core(TM) i7-8086K CPU @ 4.00GHz, GPU: NVIDIA GeForce GTX 1080
LogInit: Compiled (64-bit): Oct 18 2019 02:07:44
LogInit: Compiled with Visual C++: 19.16.27030.01
LogInit: Build Configuration: Development
LogInit: Branch Name: ++UE4+Release-4.23
LogInit: Command Line: 
LogInit: Base Directory: F:/Program Files (x86)/a/UE_4.23/Engine/Binaries/Win64/
LogInit: Installed Engine Build: 1
LogDevObjectVersion: Number of dev versions registered: 23
LogDevObjectVersion:   Dev-Blueprints (B0D832E4-1F89-4F0D-ACCF-7EB736FD4AA2): 10
LogDevObjectVersion:   Dev-Build (E1C64328-A22C-4D53-A36C-8E866417BD8C): 0
LogDevObjectVersion:   Dev-Core (375EC13C-06E4-48FB-B500-84F0262A717E): 3
LogDevObjectVersion:   Dev-Editor (E4B068ED-F494-42E9-A231-DA0B2E46BB41): 34
LogDevObjectVersion:   Dev-Framework (CFFC743F-43B0-4480-9391-14DF171D2073): 35
LogDevObjectVersion:   Dev-Mobile (B02B49B5-BB20-44E9-A304-32B752E40360): 2
LogDevObjectVersion:   Dev-Networking (A4E4105C-59A1-49B5-A7C5-40C4547EDFEE): 0
LogDevObjectVersion:   Dev-Online (39C831C9-5AE6-47DC-9A44-9C173E1C8E7C): 0
LogDevObjectVersion:   Dev-Physics (78F01B33-EBEA-4F98-B9B4-84EACCB95AA2): 0
LogDevObjectVersion:   Dev-Platform (6631380F-2D4D-43E0-8009-CF276956A95A): 0
LogDevObjectVersion:   Dev-Rendering (12F88B9F-8875-4AFC-A67C-D90C383ABD29): 31
LogDevObjectVersion:   Dev-Sequencer (7B5AE74C-D270-4C10-A958-57980B212A5A): 11
LogDevObjectVersion:   Dev-VR (D7296918-1DD6-4BDD-9DE2-64A83CC13884): 2
LogDevObjectVersion:   Dev-LoadTimes (C2A15278-BFE7-4AFE-6C17-90FF531DF755): 1
LogDevObjectVersion:   Private-Geometry (6EACA3D4-40EC-4CC1-B786-8BED09428FC5): 3
LogDevObjectVersion:   Dev-AnimPhys (29E575DD-E0A3-4627-9D10-D276232CDCEA): 17
LogDevObjectVersion:   Dev-Anim (AF43A65D-7FD3-4947-9873-3E8ED9C1BB05): 2
LogDevObjectVersion:   Dev-ReflectionCapture (6B266CEC-1EC7-4B8F-A30B-E4D90942FC07): 1
LogDevObjectVersion:   Dev-Automation (0DF73D61-A23F-47EA-B727-89E90C41499A): 1
LogDevObjectVersion:   FortniteMain (601D1886-AC64-4F84-AA16-D3DE0DEAC7D6): 27
LogDevObjectVersion:   Dev-Enterprise (9DFFBCD6-494F-0158-E221-12823C92A888): 6
LogDevObjectVersion:   Dev-Niagara (F2AED0AC-9AFE-416F-8664-AA7FFA26D6FC): 1
LogDevObjectVersion:   Dev-Destruction (174F1F0B-B4C6-45A5-B13F-2EE8D0FB917D): 9
LogInit: Presizing for max 16777216 objects, including 0 objects not considered by GC, pre-allocating 0 bytes for permanent pool.
LogInit: Object subsystem initialized
LogConfig: Setting CVar [[con.DebugEarlyDefault:1]]
LogConfig: Setting CVar [[r.setres:1280x720]]
[2020.01.27-11.12.00:180][  0]LogConfig: Setting CVar [[r.VSync:0]]
[2020.01.27-11.12.00:180][  0]LogConfig: Setting CVar [[r.RHICmdBypass:0]]
[2020.01.27-11.12.00:180][  0]LogConfig: Applying CVar settings from Section [/Script/Engine.RendererSettings] File [C:/Users/TheBestOne/Documents/Unreal Projects/MyProject8/Saved/Config/Windows/Engine.ini]
[2020.01.27-11.12.00:180][  0]LogConfig: Setting CVar [[r.GPUCrashDebugging:0]]
[2020.01.27-11.12.00:180][  0]LogConfig: Setting CVar [[r.DefaultFeature.AutoExposure.ExtendDefaultLuminanceRange:1]]
[2020.01.27-11.12.00:180][  0]LogConfig: Applying CVar settings from Section [/Script/Engine.RendererOverrideSettings] File [C:/Users/TheBestOne/Documents/Unreal Projects/MyProject8/Saved/Config/Windows/Engine.ini]
[2020.01.27-11.12.00:180][  0]LogConfig: Applying CVar settings from Section [/Script/Engine.StreamingSettings] File [C:/Users/TheBestOne/Documents/Unreal Projects/MyProject8/Saved/Config/Windows/Engine.ini]
[2020.01.27-11.12.00:180][  0]LogConfig: Setting CVar [[s.MinBulkDataSizeForAsyncLoading:131072]]
[2020.01.27-11.12.00:180][  0]LogConfig: Setting CVar [[s.AsyncLoadingThreadEnabled:0]]
[2020.01.27-11.12.00:180][  0]LogConfig: Setting CVar [[s.EventDrivenLoaderEnabled:1]]
[2020.01.27-11.12.00:180][  0]LogConfig: Setting CVar [[s.WarnIfTimeLimitExceeded:0]]
[2020.01.27-11.12.00:181][  0]LogConfig: Setting CVar [[s.TimeLimitExceededMultiplier:1.5]]
[2020.01.27-11.12.00:181][  0]LogConfig: Setting CVar [[s.TimeLimitExceededMinTime:0.005]]
[2020.01.27-11.12.00:181][  0]LogConfig: Setting CVar [[s.UseBackgroundLevelStreaming:1]]
[2020.01.27-11.12.00:181][  0]LogConfig: Setting CVar [[s.PriorityAsyncLoadingExtraTime:15.0]]
[2020.01.27-11.12.00:181][  0]LogConfig: Setting CVar [[s.LevelStreamingActorsUpdateTimeLimit:5.0]]
[2020.01.27-11.12.00:181][  0]LogConfig: Setting CVar [[s.PriorityLevelStreamingActorsUpdateExtraTime:5.0]]
[2020.01.27-11.12.00:181][  0]LogConfig: Setting CVar [[s.LevelStreamingComponentsRegistrationGranularity:10]]
[2020.01.27-11.12.00:181][  0]LogConfig: Setting CVar [[s.UnregisterComponentsTimeLimit:1.0]]
[2020.01.27-11.12.00:181][  0]LogConfig: Setting CVar [[s.LevelStreamingComponentsUnregistrationGranularity:5]]
[2020.01.27-11.12.00:181][  0]LogConfig: Applying CVar settings from Section [/Script/Engine.GarbageCollectionSettings] File [C:/Users/TheBestOne/Documents/Unreal Projects/MyProject8/Saved/Config/Windows/Engine.ini]
[2020.01.27-11.12.00:181][  0]LogConfig: Setting CVar [[gc.MaxObjectsNotConsideredByGC:1]]
[2020.01.27-11.12.00:181][  0]LogConfig: Setting CVar [[gc.SizeOfPermanentObjectPool:0]]
[2020.01.27-11.12.00:181][  0]LogConfig: Setting CVar [[gc.FlushStreamingOnGC:0]]
[2020.01.27-11.12.00:181][  0]LogConfig: Setting CVar [[gc.NumRetriesBeforeForcingGC:10]]
[2020.01.27-11.12.00:181][  0]LogConfig: Setting CVar [[gc.AllowParallelGC:1]]
[2020.01.27-11.12.00:181][  0]LogConfig: Setting CVar [[gc.TimeBetweenPurgingPendingKillObjects:61.1]]
[2020.01.27-11.12.00:181][  0]LogConfig: Setting CVar [[gc.MaxObjectsInEditor:16777216]]
[2020.01.27-11.12.00:181][  0]LogConfig: Setting CVar [[gc.IncrementalBeginDestroyEnabled:1]]
[2020.01.27-11.12.00:181][  0]LogConfig: Setting CVar [[gc.CreateGCClusters:1]]
[2020.01.27-11.12.00:181][  0]LogConfig: Setting CVar [[gc.MinGCClusterSize:5]]
[2020.01.27-11.12.00:181][  0]LogConfig: Setting CVar [[gc.ActorClusteringEnabled:0]]
[2020.01.27-11.12.00:181][  0]LogConfig: Setting CVar [[gc.BlueprintClusteringEnabled:0]]
[2020.01.27-11.12.00:181][  0]LogConfig: Setting CVar [[gc.UseDisregardForGCOnDedicatedServers:0]]
[2020.01.27-11.12.00:181][  0]LogConfig: Applying CVar settings from Section [/Script/Engine.NetworkSettings] File [C:/Users/TheBestOne/Documents/Unreal Projects/MyProject8/Saved/Config/Windows/Engine.ini]
[2020.01.27-11.12.00:181][  0]LogConfig: Applying CVar settings from Section [/Script/UnrealEd.CookerSettings] File [C:/Users/TheBestOne/Documents/Unreal Projects/MyProject8/Saved/Config/Windows/Engine.ini]
[2020.01.27-11.12.00:182][  0]LogConfig: Applying CVar settings from Section [ViewDistanceQuality@3] File [C:/Users/TheBestOne/Documents/Unreal Projects/MyProject8/Saved/Config/Windows/Scalability.ini]
[2020.01.27-11.12.00:182][  0]LogConfig: Setting CVar [[r.SkeletalMeshLODBias:0]]
[2020.01.27-11.12.00:182][  0]LogConfig: Setting CVar [[r.ViewDistanceScale:1.0]]
[2020.01.27-11.12.00:182][  0]LogConfig: Applying CVar settings from Section [AntiAliasingQuality@3] File [C:/Users/TheBestOne/Documents/Unreal Projects/MyProject8/Saved/Config/Windows/Scalability.ini]
[2020.01.27-11.12.00:182][  0]LogConfig: Setting CVar [[r.PostProcessAAQuality:4]]
[2020.01.27-11.12.00:182][  0]LogConfig: Applying CVar settings from Section [ShadowQuality@3] File [C:/Users/TheBestOne/Documents/Unreal Projects/MyProject8/Saved/Config/Windows/Scalability.ini]
[2020.01.27-11.12.00:182][  0]LogConfig: Setting CVar [[r.LightFunctionQuality:1]]
[2020.01.27-11.12.00:182][  0]LogConfig: Setting CVar [[r.ShadowQuality:5]]
[2020.01.27-11.12.00:183][  0]LogConfig: Setting CVar [[r.Shadow.CSM.MaxCascades:10]]
[2020.01.27-11.12.00:183][  0]LogConfig: Setting CVar [[r.Shadow.MaxResolution:2048]]
[2020.01.27-11.12.00:183][  0]LogConfig: Setting CVar [[r.Shadow.MaxCSMResolution:2048]]
[2020.01.27-11.12.00:183][  0]LogConfig: Setting CVar [[r.Shadow.RadiusThreshold:0.01]]
[2020.01.27-11.12.00:183][  0]LogConfig: Setting CVar [[r.Shadow.DistanceScale:1.0]]
[2020.01.27-11.12.00:183][  0]LogConfig: Setting CVar [[r.Shadow.CSM.TransitionScale:1.0]]
[2020.01.27-11.12.00:183][  0]LogConfig: Setting CVar [[r.Shadow.PreShadowResolutionFactor:1.0]]
[2020.01.27-11.12.00:183][  0]LogConfig: Setting CVar [[r.DistanceFieldShadowing:1]]
[2020.01.27-11.12.00:183][  0]LogConfig: Setting CVar [[r.DistanceFieldAO:1]]
[2020.01.27-11.12.00:183][  0]LogConfig: Setting CVar [[r.AOQuality:2]]
[2020.01.27-11.12.00:183][  0]LogConfig: Setting CVar [[r.VolumetricFog:1]]
[2020.01.27-11.12.00:183][  0]LogConfig: Setting CVar [[r.VolumetricFog.GridPixelSize:8]]
[2020.01.27-11.12.00:183][  0]LogConfig: Setting CVar [[r.VolumetricFog.GridSizeZ:128]]
[2020.01.27-11.12.00:183][  0]LogConfig: Setting CVar [[r.VolumetricFog.HistoryMissSupersampleCount:4]]
[2020.01.27-11.12.00:183][  0]LogConfig: Setting CVar [[r.LightMaxDrawDistanceScale:1]]
[2020.01.27-11.12.00:183][  0]LogConfig: Setting CVar [[r.CapsuleShadows:1]]
[2020.01.27-11.12.00:183][  0]LogConfig: Applying CVar settings from Section [PostProcessQuality@3] File [C:/Users/TheBestOne/Documents/Unreal Projects/MyProject8/Saved/Config/Windows/Scalability.ini]
[2020.01.27-11.12.00:183][  0]LogConfig: Setting CVar [[r.MotionBlurQuality:4]]
[2020.01.27-11.12.00:183][  0]LogConfig: Setting CVar [[r.AmbientOcclusionMipLevelFactor:0.4]]
[2020.01.27-11.12.00:183][  0]LogConfig: Setting CVar [[r.AmbientOcclusionMaxQuality:100]]
[2020.01.27-11.12.00:183][  0]LogConfig: Setting CVar [[r.AmbientOcclusionLevels:-1]]
[2020.01.27-11.12.00:183][  0]LogConfig: Setting CVar [[r.AmbientOcclusionRadiusScale:1.0]]
[2020.01.27-11.12.00:183][  0]LogConfig: Setting CVar [[r.DepthOfFieldQuality:2]]
[2020.01.27-11.12.00:183][  0]LogConfig: Setting CVar [[r.RenderTargetPoolMin:400]]
[2020.01.27-11.12.00:183][  0]LogConfig: Setting CVar [[r.LensFlareQuality:2]]
[2020.01.27-11.12.00:183][  0]LogConfig: Setting CVar [[r.SceneColorFringeQuality:1]]
[2020.01.27-11.12.00:183][  0]LogConfig: Setting CVar [[r.EyeAdaptationQuality:2]]
[2020.01.27-11.12.00:183][  0]LogConfig: Setting CVar [[r.BloomQuality:5]]
[2020.01.27-11.12.00:183][  0]LogConfig: Setting CVar [[r.FastBlurThreshold:100]]
[2020.01.27-11.12.00:183][  0]LogConfig: Setting CVar [[r.Upscale.Quality:3]]
[2020.01.27-11.12.00:183][  0]LogConfig: Setting CVar [[r.Tonemapper.GrainQuantization:1]]
[2020.01.27-11.12.00:183][  0]LogConfig: Setting CVar [[r.LightShaftQuality:1]]
[2020.01.27-11.12.00:183][  0]LogConfig: Setting CVar [[r.Filter.SizeScale:1]]
[2020.01.27-11.12.00:183][  0]LogConfig: Setting CVar [[r.Tonemapper.Quality:5]]
[2020.01.27-11.12.00:183][  0]LogConfig: Setting CVar [[r.DOF.Gather.AccumulatorQuality:1        ; higher gathering accumulator quality]]
[2020.01.27-11.12.00:183][  0]LogConfig: Setting CVar [[r.DOF.Gather.PostfilterMethod:1          ; Median3x3 postfilering method]]
[2020.01.27-11.12.00:183][  0]LogConfig: Setting CVar [[r.DOF.Gather.EnableBokehSettings:0       ; no bokeh simulation when gathering]]
[2020.01.27-11.12.00:183][  0]LogConfig: Setting CVar [[r.DOF.Gather.RingCount:4                 ; medium number of samples when gathering]]
[2020.01.27-11.12.00:183][  0]LogConfig: Setting CVar [[r.DOF.Scatter.ForegroundCompositing:1    ; additive foreground scattering]]
[2020.01.27-11.12.00:183][  0]LogConfig: Setting CVar [[r.DOF.Scatter.BackgroundCompositing:2    ; additive background scattering]]
[2020.01.27-11.12.00:183][  0]LogConfig: Setting CVar [[r.DOF.Scatter.EnableBokehSettings:1      ; bokeh simulation when scattering]]
[2020.01.27-11.12.00:183][  0]LogConfig: Setting CVar [[r.DOF.Scatter.MaxSpriteRatio:0.1         ; only a maximum of 10% of scattered bokeh]]
[2020.01.27-11.12.00:183][  0]LogConfig: Setting CVar [[r.DOF.Recombine.Quality:1                ; cheap slight out of focus]]
[2020.01.27-11.12.00:183][  0]LogConfig: Setting CVar [[r.DOF.Recombine.EnableBokehSettings:0    ; no bokeh simulation on slight out of focus]]
[2020.01.27-11.12.00:183][  0]LogConfig: Setting CVar [[r.DOF.TemporalAAQuality:1                ; more stable temporal accumulation]]
[2020.01.27-11.12.00:183][  0]LogConfig: Setting CVar [[r.DOF.Kernel.MaxForegroundRadius:0.025]]
[2020.01.27-11.12.00:183][  0]LogConfig: Setting CVar [[r.DOF.Kernel.MaxBackgroundRadius:0.025]]
[2020.01.27-11.12.00:183][  0]LogConfig: Applying CVar settings from Section [TextureQuality@3] File [C:/Users/TheBestOne/Documents/Unreal Projects/MyProject8/Saved/Config/Windows/Scalability.ini]
[2020.01.27-11.12.00:183][  0]LogConfig: Setting CVar [[r.Streaming.MipBias:0]]
[2020.01.27-11.12.00:183][  0]LogConfig: Setting CVar [[r.Streaming.AmortizeCPUToGPUCopy:0]]
[2020.01.27-11.12.00:183][  0]LogConfig: Setting CVar [[r.Streaming.MaxNumTexturesToStreamPerFrame:0]]
[2020.01.27-11.12.00:183][  0]LogConfig: Setting CVar [[r.Streaming.Boost:1]]
[2020.01.27-11.12.00:183][  0]LogConfig: Setting CVar [[r.MaxAnisotropy:8]]
[2020.01.27-11.12.00:183][  0]LogConfig: Setting CVar [[r.Streaming.LimitPoolSizeToVRAM:0]]
[2020.01.27-11.12.00:183][  0]LogConfig: Setting CVar [[r.Streaming.PoolSize:1000]]
[2020.01.27-11.12.00:183][  0]LogConfig: Setting CVar [[r.Streaming.MaxEffectiveScreenSize:0]]
[2020.01.27-11.12.00:183][  0]LogConfig: Applying CVar settings from Section [EffectsQuality@3] File [C:/Users/TheBestOne/Documents/Unreal Projects/MyProject8/Saved/Config/Windows/Scalability.ini]
[2020.01.27-11.12.00:183][  0]LogConfig: Setting CVar [[r.TranslucencyLightingVolumeDim:64]]
[2020.01.27-11.12.00:183][  0]LogConfig: Setting CVar [[r.RefractionQuality:2]]
[2020.01.27-11.12.00:183][  0]LogConfig: Setting CVar [[r.SSR.Quality:3]]
[2020.01.27-11.12.00:183][  0]LogConfig: Setting CVar [[r.SceneColorFormat:4]]
[2020.01.27-11.12.00:183][  0]LogConfig: Setting CVar [[r.DetailMode:2]]
[2020.01.27-11.12.00:183][  0]LogConfig: Setting CVar [[r.TranslucencyVolumeBlur:1]]
[2020.01.27-11.12.00:183][  0]LogConfig: Setting CVar [[r.MaterialQualityLevel:1 ; High quality]]
[2020.01.27-11.12.00:183][  0]LogConfig: Setting CVar [[r.SSS.Scale:1]]
[2020.01.27-11.12.00:183][  0]LogConfig: Setting CVar [[r.SSS.SampleSet:2]]
[2020.01.27-11.12.00:183][  0]LogConfig: Setting CVar [[r.SSS.Quality:1]]
[2020.01.27-11.12.00:183][  0]LogConfig: Setting CVar [[r.SSS.HalfRes:1]]
[2020.01.27-11.12.00:183][  0]LogConfig: Setting CVar [[r.EmitterSpawnRateScale:1.0]]
[2020.01.27-11.12.00:183][  0]LogConfig: Setting CVar [[r.ParticleLightQuality:2]]
[2020.01.27-11.12.00:183][  0]LogConfig: Applying CVar settings from Section [FoliageQuality@3] File [C:/Users/TheBestOne/Documents/Unreal Projects/MyProject8/Saved/Config/Windows/Scalability.ini]
[2020.01.27-11.12.00:183][  0]LogConfig: Setting CVar [[foliage.DensityScale:1.0]]
[2020.01.27-11.12.00:183][  0]LogConfig: Setting CVar [[grass.DensityScale:1.0]]
[2020.01.27-11.12.00:183][  0]LogInit: Selected Device Profile: [Windows]
[2020.01.27-11.12.00:183][  0]LogInit: Applying CVar settings loaded from the selected device profile: [Windows]
[2020.01.27-11.12.00:185][  0]LogHAL: Display: Platform has ~ 16 GB [17100599296 / 17179869184 / 16], which maps to Larger [LargestMinGB=32, LargerMinGB=12, DefaultMinGB=8, SmallerMinGB=6, SmallestMinGB=0)
[2020.01.27-11.12.00:186][  0]LogInit: Going up to parent DeviceProfile []
[2020.01.27-11.12.00:186][  0]LogConfig: Applying CVar settings from Section [ViewDistanceQuality@3] File [C:/Users/TheBestOne/Documents/Unreal Projects/MyProject8/Saved/Config/Windows/Scalability.ini]
[2020.01.27-11.12.00:186][  0]LogConfig: Setting CVar [[r.SkeletalMeshLODBias:0]]
[2020.01.27-11.12.00:186][  0]LogConfig: Setting CVar [[r.ViewDistanceScale:1.0]]
[2020.01.27-11.12.00:186][  0]LogConfig: Applying CVar settings from Section [AntiAliasingQuality@3] File [C:/Users/TheBestOne/Documents/Unreal Projects/MyProject8/Saved/Config/Windows/Scalability.ini]
[2020.01.27-11.12.00:186][  0]LogConfig: Setting CVar [[r.PostProcessAAQuality:4]]
[2020.01.27-11.12.00:186][  0]LogConfig: Applying CVar settings from Section [ShadowQuality@3] File [C:/Users/TheBestOne/Documents/Unreal Projects/MyProject8/Saved/Config/Windows/Scalability.ini]
[2020.01.27-11.12.00:186][  0]LogConfig: Setting CVar [[r.LightFunctionQuality:1]]
[2020.01.27-11.12.00:186][  0]LogConfig: Setting CVar [[r.ShadowQuality:5]]
[2020.01.27-11.12.00:186][  0]LogConfig: Setting CVar [[r.Shadow.CSM.MaxCascades:10]]
[2020.01.27-11.12.00:186][  0]LogConfig: Setting CVar [[r.Shadow.MaxResolution:2048]]
[2020.01.27-11.12.00:186][  0]LogConfig: Setting CVar [[r.Shadow.MaxCSMResolution:2048]]
[2020.01.27-11.12.00:186][  0]LogConfig: Setting CVar [[r.Shadow.RadiusThreshold:0.01]]
[2020.01.27-11.12.00:186][  0]LogConfig: Setting CVar [[r.Shadow.DistanceScale:1.0]]
[2020.01.27-11.12.00:186][  0]LogConfig: Setting CVar [[r.Shadow.CSM.TransitionScale:1.0]]
[2020.01.27-11.12.00:186][  0]LogConfig: Setting CVar [[r.Shadow.PreShadowResolutionFactor:1.0]]
[2020.01.27-11.12.00:186][  0]LogConfig: Setting CVar [[r.DistanceFieldShadowing:1]]
[2020.01.27-11.12.00:186][  0]LogConfig: Setting CVar [[r.DistanceFieldAO:1]]
[2020.01.27-11.12.00:186][  0]LogConfig: Setting CVar [[r.AOQuality:2]]
[2020.01.27-11.12.00:186][  0]LogConfig: Setting CVar [[r.VolumetricFog:1]]
[2020.01.27-11.12.00:186][  0]LogConfig: Setting CVar [[r.VolumetricFog.GridPixelSize:8]]
[2020.01.27-11.12.00:186][  0]LogConfig: Setting CVar [[r.VolumetricFog.GridSizeZ:128]]
[2020.01.27-11.12.00:186][  0]LogConfig: Setting CVar [[r.VolumetricFog.HistoryMissSupersampleCount:4]]
[2020.01.27-11.12.00:186][  0]LogConfig: Setting CVar [[r.LightMaxDrawDistanceScale:1]]
[2020.01.27-11.12.00:186][  0]LogConfig: Setting CVar [[r.CapsuleShadows:1]]
[2020.01.27-11.12.00:186][  0]LogConfig: Applying CVar settings from Section [PostProcessQuality@3] File [C:/Users/TheBestOne/Documents/Unreal Projects/MyProject8/Saved/Config/Windows/Scalability.ini]
[2020.01.27-11.12.00:186][  0]LogConfig: Setting CVar [[r.MotionBlurQuality:4]]
[2020.01.27-11.12.00:186][  0]LogConfig: Setting CVar [[r.AmbientOcclusionMipLevelFactor:0.4]]
[2020.01.27-11.12.00:186][  0]LogConfig: Setting CVar [[r.AmbientOcclusionMaxQuality:100]]
[2020.01.27-11.12.00:186][  0]LogConfig: Setting CVar [[r.AmbientOcclusionLevels:-1]]
[2020.01.27-11.12.00:186][  0]LogConfig: Setting CVar [[r.AmbientOcclusionRadiusScale:1.0]]
[2020.01.27-11.12.00:186][  0]LogConfig: Setting CVar [[r.DepthOfFieldQuality:2]]
[2020.01.27-11.12.00:186][  0]LogConfig: Setting CVar [[r.RenderTargetPoolMin:400]]
[2020.01.27-11.12.00:186][  0]LogConfig: Setting CVar [[r.LensFlareQuality:2]]
[2020.01.27-11.12.00:186][  0]LogConfig: Setting CVar [[r.SceneColorFringeQuality:1]]
[2020.01.27-11.12.00:186][  0]LogConfig: Setting CVar [[r.EyeAdaptationQuality:2]]
[2020.01.27-11.12.00:186][  0]LogConfig: Setting CVar [[r.BloomQuality:5]]
[2020.01.27-11.12.00:186][  0]LogConfig: Setting CVar [[r.FastBlurThreshold:100]]
[2020.01.27-11.12.00:186][  0]LogConfig: Setting CVar [[r.Upscale.Quality:3]]
[2020.01.27-11.12.00:186][  0]LogConfig: Setting CVar [[r.Tonemapper.GrainQuantization:1]]
[2020.01.27-11.12.00:186][  0]LogConfig: Setting CVar [[r.LightShaftQuality:1]]
[2020.01.27-11.12.00:186][  0]LogConfig: Setting CVar [[r.Filter.SizeScale:1]]
[2020.01.27-11.12.00:186][  0]LogConfig: Setting CVar [[r.Tonemapper.Quality:5]]
[2020.01.27-11.12.00:186][  0]LogConfig: Setting CVar [[r.DOF.Gather.AccumulatorQuality:1        ; higher gathering accumulator quality]]
[2020.01.27-11.12.00:186][  0]LogConfig: Setting CVar [[r.DOF.Gather.PostfilterMethod:1          ; Median3x3 postfilering method]]
[2020.01.27-11.12.00:186][  0]LogConfig: Setting CVar [[r.DOF.Gather.EnableBokehSettings:0       ; no bokeh simulation when gathering]]
[2020.01.27-11.12.00:186][  0]LogConfig: Setting CVar [[r.DOF.Gather.RingCount:4                 ; medium number of samples when gathering]]
[2020.01.27-11.12.00:186][  0]LogConfig: Setting CVar [[r.DOF.Scatter.ForegroundCompositing:1    ; additive foreground scattering]]
[2020.01.27-11.12.00:186][  0]LogConfig: Setting CVar [[r.DOF.Scatter.BackgroundCompositing:2    ; additive background scattering]]
[2020.01.27-11.12.00:186][  0]LogConfig: Setting CVar [[r.DOF.Scatter.EnableBokehSettings:1      ; bokeh simulation when scattering]]
[2020.01.27-11.12.00:186][  0]LogConfig: Setting CVar [[r.DOF.Scatter.MaxSpriteRatio:0.1         ; only a maximum of 10% of scattered bokeh]]
[2020.01.27-11.12.00:186][  0]LogConfig: Setting CVar [[r.DOF.Recombine.Quality:1                ; cheap slight out of focus]]
[2020.01.27-11.12.00:186][  0]LogConfig: Setting CVar [[r.DOF.Recombine.EnableBokehSettings:0    ; no bokeh simulation on slight out of focus]]
[2020.01.27-11.12.00:186][  0]LogConfig: Setting CVar [[r.DOF.TemporalAAQuality:1                ; more stable temporal accumulation]]
[2020.01.27-11.12.00:186][  0]LogConfig: Setting CVar [[r.DOF.Kernel.MaxForegroundRadius:0.025]]
[2020.01.27-11.12.00:186][  0]LogConfig: Setting CVar [[r.DOF.Kernel.MaxBackgroundRadius:0.025]]
[2020.01.27-11.12.00:186][  0]LogConfig: Applying CVar settings from Section [TextureQuality@3] File [C:/Users/TheBestOne/Documents/Unreal Projects/MyProject8/Saved/Config/Windows/Scalability.ini]
[2020.01.27-11.12.00:186][  0]LogConfig: Setting CVar [[r.Streaming.MipBias:0]]
[2020.01.27-11.12.00:186][  0]LogConfig: Setting CVar [[r.Streaming.AmortizeCPUToGPUCopy:0]]
[2020.01.27-11.12.00:186][  0]LogConfig: Setting CVar [[r.Streaming.MaxNumTexturesToStreamPerFrame:0]]
[2020.01.27-11.12.00:186][  0]LogConfig: Setting CVar [[r.Streaming.Boost:1]]
[2020.01.27-11.12.00:186][  0]LogConfig: Setting CVar [[r.MaxAnisotropy:8]]
[2020.01.27-11.12.00:186][  0]LogConfig: Setting CVar [[r.Streaming.LimitPoolSizeToVRAM:0]]
[2020.01.27-11.12.00:186][  0]LogConfig: Setting CVar [[r.Streaming.PoolSize:1000]]
[2020.01.27-11.12.00:186][  0]LogConfig: Setting CVar [[r.Streaming.MaxEffectiveScreenSize:0]]
[2020.01.27-11.12.00:186][  0]LogConfig: Applying CVar settings from Section [EffectsQuality@3] File [C:/Users/TheBestOne/Documents/Unreal Projects/MyProject8/Saved/Config/Windows/Scalability.ini]
[2020.01.27-11.12.00:186][  0]LogConfig: Setting CVar [[r.TranslucencyLightingVolumeDim:64]]
[2020.01.27-11.12.00:186][  0]LogConfig: Setting CVar [[r.RefractionQuality:2]]
[2020.01.27-11.12.00:186][  0]LogConfig: Setting CVar [[r.SSR.Quality:3]]
[2020.01.27-11.12.00:186][  0]LogConfig: Setting CVar [[r.SceneColorFormat:4]]
[2020.01.27-11.12.00:186][  0]LogConfig: Setting CVar [[r.DetailMode:2]]
[2020.01.27-11.12.00:186][  0]LogConfig: Setting CVar [[r.TranslucencyVolumeBlur:1]]
[2020.01.27-11.12.00:186][  0]LogConfig: Setting CVar [[r.MaterialQualityLevel:1 ; High quality]]
[2020.01.27-11.12.00:186][  0]LogConfig: Setting CVar [[r.SSS.Scale:1]]
[2020.01.27-11.12.00:186][  0]LogConfig: Setting CVar [[r.SSS.SampleSet:2]]
[2020.01.27-11.12.00:186][  0]LogConfig: Setting CVar [[r.SSS.Quality:1]]
[2020.01.27-11.12.00:186][  0]LogConfig: Setting CVar [[r.SSS.HalfRes:1]]
[2020.01.27-11.12.00:186][  0]LogConfig: Setting CVar [[r.EmitterSpawnRateScale:1.0]]
[2020.01.27-11.12.00:186][  0]LogConfig: Setting CVar [[r.ParticleLightQuality:2]]
[2020.01.27-11.12.00:186][  0]LogConfig: Applying CVar settings from Section [FoliageQuality@3] File [C:/Users/TheBestOne/Documents/Unreal Projects/MyProject8/Saved/Config/Windows/Scalability.ini]
[2020.01.27-11.12.00:187][  0]LogConfig: Setting CVar [[foliage.DensityScale:1.0]]
[2020.01.27-11.12.00:187][  0]LogConfig: Setting CVar [[grass.DensityScale:1.0]]
[2020.01.27-11.12.00:187][  0]LogConfig: Applying CVar settings from Section [Startup] File [../../../Engine/Config/ConsoleVariables.ini]
[2020.01.27-11.12.00:187][  0]LogConfig: Setting CVar [[net.UseAdaptiveNetUpdateFrequency:0]]
[2020.01.27-11.12.00:187][  0]LogConfig: Setting CVar [[p.chaos.AllowCreatePhysxBodies:1]]
[2020.01.27-11.12.00:187][  0]LogConfig: Applying CVar settings from Section [ConsoleVariables] File [C:/Users/TheBestOne/Documents/Unreal Projects/MyProject8/Saved/Config/Windows/Engine.ini]
[2020.01.27-11.12.00:187][  0]LogInit: Computer: DESKTOP-66F193Q
[2020.01.27-11.12.00:187][  0]LogInit: User: TheBestOne
[2020.01.27-11.12.00:187][  0]LogInit: CPU Page size=4096, Cores=6
[2020.01.27-11.12.00:187][  0]LogInit: High frequency timer resolution =10.000000 MHz
[2020.01.27-11.12.00:187][  0]LogMemory: Memory total: Physical=15.9GB (16GB approx)
[2020.01.27-11.12.00:187][  0]LogMemory: Platform Memory Stats for Windows
[2020.01.27-11.12.00:187][  0]LogMemory: Process Physical Memory: 101.12 MB used, 101.12 MB peak
[2020.01.27-11.12.00:187][  0]LogMemory: Process Virtual Memory: 89.62 MB used, 89.62 MB peak
[2020.01.27-11.12.00:187][  0]LogMemory: Physical Memory: 5909.46 MB used,  10398.94 MB free, 16308.40 MB total
[2020.01.27-11.12.00:187][  0]LogMemory: Virtual Memory: 4674.75 MB used,  134213056.00 MB free, 134217728.00 MB total
[2020.01.27-11.12.00:189][  0]LogWindows: WindowsPlatformFeatures enabled
[2020.01.27-11.12.00:204][  0]LogInit: Using OS detected language (ru-RU).
[2020.01.27-11.12.00:204][  0]LogInit: Using OS detected locale (ru-RU).
[2020.01.27-11.12.00:205][  0]LogTextLocalizationManager: No specific localization for 'ru-RU' exists, so the 'ru' localization will be used.
[2020.01.27-11.12.00:206][  0]LogTextLocalizationResource: LocRes '../../../Engine/Content/Localization/Editor/ru/Editor.locres' could not be opened for reading!
[2020.01.27-11.12.00:206][  0]LogTextLocalizationResource: LocRes '../../../Engine/Content/Localization/EditorTutorials/ru/EditorTutorials.locres' could not be opened for reading!
[2020.01.27-11.12.00:206][  0]LogTextLocalizationResource: LocRes '../../../Engine/Content/Localization/Keywords/ru/Keywords.locres' could not be opened for reading!
[2020.01.27-11.12.00:206][  0]LogTextLocalizationResource: LocRes '../../../Engine/Content/Localization/Category/ru/Category.locres' could not be opened for reading!
[2020.01.27-11.12.00:206][  0]LogTextLocalizationResource: LocRes '../../../Engine/Content/Localization/ToolTips/ru/ToolTips.locres' could not be opened for reading!
[2020.01.27-11.12.00:206][  0]LogTextLocalizationResource: LocRes '../../../Engine/Content/Localization/PropertyNames/ru/PropertyNames.locres' could not be opened for reading!
[2020.01.27-11.12.00:206][  0]LogTextLocalizationResource: LocRes '../../../Engine/Content/Localization/Engine/ru/Engine.locres' could not be opened for reading!
[2020.01.27-11.12.00:206][  0]LogInit: Setting process to per monitor DPI aware
[2020.01.27-11.12.00:228][  0]LogSlate: New Slate User Created.  User Index 0, Is Virtual User: 0
[2020.01.27-11.12.00:228][  0]LogSlate: Slate User Registered.  User Index 0, Is Virtual User: 0
[2020.01.27-11.12.00:392][  0]LogHMD: Failed to initialize OpenVR with code 110
[2020.01.27-11.12.00:392][  0]LogD3D11RHI: D3D11 adapters:
[2020.01.27-11.12.00:451][  0]LogD3D11RHI:    0. 'NVIDIA GeForce GTX 1080' (Feature Level 11_0)
[2020.01.27-11.12.00:451][  0]LogD3D11RHI:       8079/0/8154 MB DedicatedVideo/DedicatedSystem/SharedSystem, Outputs:1, VendorId:0x10de
[2020.01.27-11.12.00:453][  0]LogD3D11RHI:    1. 'Microsoft Basic Render Driver' (Feature Level 11_0)
[2020.01.27-11.12.00:453][  0]LogD3D11RHI:       0/0/8154 MB DedicatedVideo/DedicatedSystem/SharedSystem, Outputs:0, VendorId:0x1414
[2020.01.27-11.12.00:453][  0]LogD3D11RHI: Chosen D3D11 Adapter: 0
[2020.01.27-11.12.00:459][  0]LogD3D11RHI: Creating new Direct3DDevice
[2020.01.27-11.12.00:459][  0]LogD3D11RHI:     GPU DeviceId: 0x1b80 (for the marketing name, search the web for "GPU Device Id")
[2020.01.27-11.12.00:459][  0]LogWindows: EnumDisplayDevices:
[2020.01.27-11.12.00:460][  0]LogWindows:    0. 'NVIDIA GeForce GTX 1080' (P:1 D:1)
[2020.01.27-11.12.00:460][  0]LogWindows:    1. 'NVIDIA GeForce GTX 1080' (P:0 D:0)
[2020.01.27-11.12.00:460][  0]LogWindows:    2. 'NVIDIA GeForce GTX 1080' (P:0 D:0)
[2020.01.27-11.12.00:460][  0]LogWindows:    3. 'NVIDIA GeForce GTX 1080' (P:0 D:0)
[2020.01.27-11.12.00:460][  0]LogWindows: DebugString: FoundDriverCount:4 
[2020.01.27-11.12.00:460][  0]LogD3D11RHI:     Adapter Name: NVIDIA GeForce GTX 1080
[2020.01.27-11.12.00:460][  0]LogD3D11RHI:   Driver Version: 441.87 (internal:26.21.14.4187, unified:441.87)
[2020.01.27-11.12.00:460][  0]LogD3D11RHI:      Driver Date: 12-24-2019
[2020.01.27-11.12.00:460][  0]LogRHI: Texture pool is 5655 MB (70% of 8079 MB)
[2020.01.27-11.12.00:497][  0]LogD3D11RHI: Async texture creation enabled
[2020.01.27-11.12.00:512][  0]LogD3D11RHI: GPU Timing Frequency: 1000.000000 (Debug: 2 1)
[2020.01.27-11.12.00:759][  0]LogTemp: Display: Module 'AllDesktopTargetPlatform' loaded TargetPlatform 'AllDesktop'
[2020.01.27-11.12.00:765][  0]LogTemp: Display: Module 'MacClientTargetPlatform' loaded TargetPlatform 'MacClient'
[2020.01.27-11.12.00:772][  0]LogTemp: Display: Module 'MacNoEditorTargetPlatform' loaded TargetPlatform 'MacNoEditor'
[2020.01.27-11.12.00:778][  0]LogTemp: Display: Module 'MacServerTargetPlatform' loaded TargetPlatform 'MacServer'
[2020.01.27-11.12.00:784][  0]LogTemp: Display: Module 'MacTargetPlatform' loaded TargetPlatform 'Mac'
[2020.01.27-11.12.00:790][  0]LogTemp: Display: Module 'WindowsClientTargetPlatform' loaded TargetPlatform 'WindowsClient'
[2020.01.27-11.12.00:796][  0]LogTemp: Display: Module 'WindowsNoEditorTargetPlatform' loaded TargetPlatform 'WindowsNoEditor'
[2020.01.27-11.12.00:803][  0]LogTemp: Display: Module 'WindowsServerTargetPlatform' loaded TargetPlatform 'WindowsServer'
[2020.01.27-11.12.00:806][  0]LogTemp: Display: Module 'WindowsTargetPlatform' loaded TargetPlatform 'Windows'
[2020.01.27-11.12.00:832][  0]LogTemp: Display: Module 'AndroidTargetPlatform' loaded TargetPlatform 'Android'
[2020.01.27-11.12.00:832][  0]LogTemp: Display: Module 'AndroidTargetPlatform' loaded TargetPlatform 'Android_ASTC'
[2020.01.27-11.12.00:832][  0]LogTemp: Display: Module 'AndroidTargetPlatform' loaded TargetPlatform 'Android_ATC'
[2020.01.27-11.12.00:832][  0]LogTemp: Display: Module 'AndroidTargetPlatform' loaded TargetPlatform 'Android_DXT'
[2020.01.27-11.12.00:832][  0]LogTemp: Display: Module 'AndroidTargetPlatform' loaded TargetPlatform 'Android_ETC1'
[2020.01.27-11.12.00:832][  0]LogTemp: Display: Module 'AndroidTargetPlatform' loaded TargetPlatform 'Android_ETC1a'
[2020.01.27-11.12.00:832][  0]LogTemp: Display: Module 'AndroidTargetPlatform' loaded TargetPlatform 'Android_ETC2'
[2020.01.27-11.12.00:832][  0]LogTemp: Display: Module 'AndroidTargetPlatform' loaded TargetPlatform 'Android_PVRTC'
[2020.01.27-11.12.00:832][  0]LogTemp: Display: Module 'AndroidTargetPlatform' loaded TargetPlatform 'AndroidClient'
[2020.01.27-11.12.00:832][  0]LogTemp: Display: Module 'AndroidTargetPlatform' loaded TargetPlatform 'Android_ASTCClient'
[2020.01.27-11.12.00:832][  0]LogTemp: Display: Module 'AndroidTargetPlatform' loaded TargetPlatform 'Android_ATCClient'
[2020.01.27-11.12.00:832][  0]LogTemp: Display: Module 'AndroidTargetPlatform' loaded TargetPlatform 'Android_DXTClient'
[2020.01.27-11.12.00:832][  0]LogTemp: Display: Module 'AndroidTargetPlatform' loaded TargetPlatform 'Android_ETC1Client'
[2020.01.27-11.12.00:832][  0]LogTemp: Display: Module 'AndroidTargetPlatform' loaded TargetPlatform 'Android_ETC1aClient'
[2020.01.27-11.12.00:832][  0]LogTemp: Display: Module 'AndroidTargetPlatform' loaded TargetPlatform 'Android_ETC2Client'
[2020.01.27-11.12.00:832][  0]LogTemp: Display: Module 'AndroidTargetPlatform' loaded TargetPlatform 'Android_PVRTCClient'
[2020.01.27-11.12.00:833][  0]LogTemp: Display: Module 'AndroidTargetPlatform' loaded TargetPlatform 'Android_Multi'
[2020.01.27-11.12.00:833][  0]LogTemp: Display: Module 'AndroidTargetPlatform' loaded TargetPlatform 'Android_MultiClient'
[2020.01.27-11.12.00:834][  0]LogTemp: Display: Module 'HTML5TargetPlatform' loaded TargetPlatform 'HTML5'
[2020.01.27-11.12.00:848][  0]LogTemp: Display: Module 'IOSTargetPlatform' loaded TargetPlatform 'IOSClient'
[2020.01.27-11.12.00:848][  0]LogTemp: Display: Module 'IOSTargetPlatform' loaded TargetPlatform 'IOS'
[2020.01.27-11.12.00:859][  0]LogTemp: Display: Module 'TVOSTargetPlatform' loaded TargetPlatform 'TVOSClient'
[2020.01.27-11.12.00:859][  0]LogTemp: Display: Module 'TVOSTargetPlatform' loaded TargetPlatform 'TVOS'
[2020.01.27-11.12.00:865][  0]LogTemp: Display: Module 'LinuxClientTargetPlatform' loaded TargetPlatform 'LinuxClient'
[2020.01.27-11.12.00:870][  0]LogTemp: Display: Module 'LinuxNoEditorTargetPlatform' loaded TargetPlatform 'LinuxNoEditor'
[2020.01.27-11.12.00:876][  0]LogTemp: Display: Module 'LinuxServerTargetPlatform' loaded TargetPlatform 'LinuxServer'
[2020.01.27-11.12.00:882][  0]LogTemp: Display: Module 'LinuxTargetPlatform' loaded TargetPlatform 'Linux'
[2020.01.27-11.12.00:900][  0]LogTemp: Display: Module 'LuminTargetPlatform' loaded TargetPlatform 'Lumin'
[2020.01.27-11.12.00:900][  0]LogTemp: Display: Module 'LuminTargetPlatform' loaded TargetPlatform 'LuminClient'
[2020.01.27-11.12.00:900][  0]LogTargetPlatformManager: Display: Building Assets For Windows
[2020.01.27-11.12.00:906][  0]LogAudioDebug: Display: Lib vorbis DLL was dynamically loaded.
[2020.01.27-11.12.00:936][  0]LogShaderCompilers: Guid format shader working directory is -6 characters bigger than the processId version (C:/Users/TheBestOne/Documents/Unreal Projects/MyProject8/Intermediate/Shaders/WorkingDirectory/10292/).
[2020.01.27-11.12.00:936][  0]LogShaderCompilers: Cleaned the shader compiler working directory 'C:/Users/TheBestOne/AppData/Local/Temp/UnrealShaderWorkingDir/6859027A42BB0CF26288DAB2BAD939B2/'.
[2020.01.27-11.12.00:938][  0]LogXGEController: Cannot use XGE Controller as Incredibuild is not installed on this machine.
[2020.01.27-11.12.00:938][  0]LogShaderCompilers: Cannot use XGE Shader Compiler as Incredibuild is not installed on this machine.
[2020.01.27-11.12.00:938][  0]LogShaderCompilers: Display: Using Local Shader Compiler.
[2020.01.27-11.12.01:450][  0]LogDerivedDataCache: Display: Max Cache Size: 512 MB
[2020.01.27-11.12.01:490][  0]LogDerivedDataCache: Loaded boot cache 0.04s 73MB C:/Users/TheBestOne/AppData/Local/UnrealEngine/4.23/DerivedDataCache/Boot.ddc.
[2020.01.27-11.12.01:490][  0]LogDerivedDataCache: Display: Loaded Boot cache: C:/Users/TheBestOne/AppData/Local/UnrealEngine/4.23/DerivedDataCache/Boot.ddc
[2020.01.27-11.12.01:490][  0]LogDerivedDataCache: FDerivedDataBackendGraph:  Pak pak cache file C:/Users/TheBestOne/Documents/Unreal Projects/MyProject8/DerivedDataCache/DDC.ddp not found, will not use a pak cache.
[2020.01.27-11.12.01:490][  0]LogDerivedDataCache: Unable to find inner node Pak for hierarchical cache Hierarchy.
[2020.01.27-11.12.01:490][  0]LogDerivedDataCache: FDerivedDataBackendGraph:  CompressedPak pak cache file C:/Users/TheBestOne/Documents/Unreal Projects/MyProject8/DerivedDataCache/Compressed.ddp not found, will not use a pak cache.
[2020.01.27-11.12.01:490][  0]LogDerivedDataCache: Unable to find inner node CompressedPak for hierarchical cache Hierarchy.
[2020.01.27-11.12.01:500][  0]LogDerivedDataCache: Display: Pak cache opened for reading ../../../Engine/DerivedDataCache/Compressed.ddp.
[2020.01.27-11.12.01:500][  0]LogDerivedDataCache: FDerivedDataBackendGraph:  EnterprisePak pak cache file ../../../Enterprise/DerivedDataCache/Compressed.ddp not found, will not use a pak cache.
[2020.01.27-11.12.01:500][  0]LogDerivedDataCache: Unable to find inner node EnterprisePak for hierarchical cache Hierarchy.
[2020.01.27-11.12.01:501][  0]LogDerivedDataCache: Using Local data cache path C:/Users/TheBestOne/AppData/Local/UnrealEngine/Common/DerivedDataCache: Writable
[2020.01.27-11.12.01:501][  0]LogDerivedDataCache: Shared data cache path not found in *engine.ini, will not use an Shared cache.
[2020.01.27-11.12.01:501][  0]LogDerivedDataCache: Unable to find inner node Shared for hierarchical cache Hierarchy.
[2020.01.27-11.12.01:518][  0]LogMaterial: Verifying Global Shaders for PCD3D_SM5
[2020.01.27-11.12.01:520][  0]LogSlate: Using FreeType 2.6.0
[2020.01.27-11.12.01:520][  0]LogSlate: SlateFontServices - WITH_FREETYPE: 1, WITH_HARFBUZZ: 1
[2020.01.27-11.12.01:570][  0]LogAssetRegistry: FAssetRegistry took 0.0026 seconds to start up
[2020.01.27-11.12.01:780][  0]LogInit: Selected Device Profile: [Windows]
[2020.01.27-11.12.01:894][  0]LogMeshReduction: Using QuadricMeshReduction for automatic static mesh reduction
[2020.01.27-11.12.01:894][  0]LogMeshReduction: Using SimplygonMeshReduction for automatic skeletal mesh reduction
[2020.01.27-11.12.01:894][  0]LogMeshReduction: Using ProxyLODMeshReduction for automatic mesh merging
[2020.01.27-11.12.01:894][  0]LogMeshReduction: No distributed automatic mesh merging module available
[2020.01.27-11.12.01:894][  0]LogMeshMerging: No distributed automatic mesh merging module available
[2020.01.27-11.12.01:902][  0]LogNetVersion: MyProject8 1.0.0, NetCL: 8386587, EngineNetVer: 11, GameNetVer: 0 (Checksum: 1420565263)
[2020.01.27-11.12.02:211][  0]LogPackageLocalizationCache: Processed 12 localized package path(s) for 1 prioritized culture(s) in 0.022833 seconds
[2020.01.27-11.12.02:216][  0]LogUObjectArray: 43444 objects as part of root set at end of initial load.
[2020.01.27-11.12.02:216][  0]LogUObjectAllocator: 7548648 out of 0 bytes used by permanent object pool.
[2020.01.27-11.12.02:216][  0]LogUObjectArray: CloseDisregardForGC: 0/0 objects in disregard for GC pool
[2020.01.27-11.12.02:912][  0]LogTcpMessaging: Initializing TcpMessaging bridge
[2020.01.27-11.12.02:915][  0]LogUdpMessaging: Initializing bridge on interface 0.0.0.0:0 to multicast group 230.0.0.1:6666.
[2020.01.27-11.12.02:953][  0]SourceControl: Source control is disabled
[2020.01.27-11.12.02:953][  0]SourceControl: Source control is disabled
[2020.01.27-11.12.02:953][  0]SourceControl: Source control is disabled
[2020.01.27-11.12.02:954][  0]SourceControl: Source control is disabled
[2020.01.27-11.12.02:960][  0]LogVSAccessor: Display: Unable to create Visual Studio setup instance: 80040154
[2020.01.27-11.12.02:960][  0]LogVSAccessor: Display: Unable to create Visual Studio setup instance: 80040154
[2020.01.27-11.12.03:014][  0]LogAndroidPermission: UAndroidPermissionCallbackProxy::GetInstance
[2020.01.27-11.12.03:287][  0]LogOcInput: OculusInput pre-init called
[2020.01.27-11.12.03:291][  0]LogWindows: Failed to load 'OVRPlugin.dll' (GetLastError=126)
[2020.01.27-11.12.03:291][  0]LogWindows: File 'OVRPlugin.dll' does not exist
[2020.01.27-11.12.03:343][  0]LogEngine: Initializing Engine...
[2020.01.27-11.12.03:344][  0]LogHMD: Failed to initialize OpenVR with code 110
[2020.01.27-11.12.03:345][  0]LogStats: UGameplayTagsManager::InitializeManager -  0.000 s
[2020.01.27-11.12.03:519][  0]LogInit: Initializing FReadOnlyCVARCache
[2020.01.27-11.12.03:527][  0]LogAIModule: Creating AISystem for world Untitled
[2020.01.27-11.12.03:612][  0]LogInit: XAudio2 using 'Динамики (2- Realtek High Definition Audio)' : 2 channels at 48 kHz using 32 bits per sample (channel mask 0x3)
[2020.01.27-11.12.03:663][  0]LogInit: FAudioDevice initialized.
[2020.01.27-11.12.03:664][  0]LogNetVersion: Set ProjectVersion to 1.0.0.0. Version Checksum will be recalculated on next use.
[2020.01.27-11.12.03:786][  0]LogDerivedDataCache: Saved boot cache 0.12s 73MB C:/Users/TheBestOne/AppData/Local/UnrealEngine/4.23/DerivedDataCache/Boot.ddc.
[2020.01.27-11.12.03:788][  0]LogInit: Texture streaming: Enabled
[2020.01.27-11.12.03:799][  0]LogEngineSessionManager: EngineSessionManager initialized
[2020.01.27-11.12.03:799][  0]LogEditorSessionSummary: Verbose: Initializing EditorSessionSummaryWriter for editor session tracking
[2020.01.27-11.12.03:799][  0]LogEditorSessionSummary: EditorSessionSummaryWriter initialized
[2020.01.27-11.12.03:826][  0]LogInit: Transaction tracking system initialized
[2020.01.27-11.12.03:843][  0]BlueprintLog: New page: Editor Load
[2020.01.27-11.12.03:886][  0]LocalizationService: Localization service is disabled
[2020.01.27-11.12.03:935][  0]LogVSAccessor: Display: Unable to create Visual Studio setup instance: 80040154
[2020.01.27-11.12.03:936][  0]LogVSAccessor: Display: Unable to create Visual Studio setup instance: 80040154
[2020.01.27-11.12.04:059][  0]LogFileCache: Scanning file cache for directory 'C:/Users/TheBestOne/Documents/Unreal Projects/MyProject8/Content/' took 0.00s
[2020.01.27-11.12.04:059][  0]LogCook: Display: Max memory allowance for cook 16384mb min free memory 0mb
[2020.01.27-11.12.04:059][  0]LogCook: Display: Mobile HDR setting 1
[2020.01.27-11.12.04:188][  0]SourceControl: Source control is disabled
[2020.01.27-11.12.04:188][  0]Cmd: MAP LOAD FILE="C:/Users/TheBestOne/Documents/Unreal Projects/MyProject8/Content/Hw12.umap" TEMPLATE=0 SHOWPROGRESS=1 FEATURELEVEL=3
[2020.01.27-11.12.04:188][  0]LightingResults: New page: Lighting Build
[2020.01.27-11.12.04:189][  0]LogWorld: UWorld::CleanupWorld for Untitled, bSessionEnded=true, bCleanupResources=true
[2020.01.27-11.12.04:190][  0]MapCheck: New page: Map Check
[2020.01.27-11.12.04:190][  0]LightingResults: New page: Lighting Build
[2020.01.27-11.12.04:214][  0]LogUObjectHash: Compacting FUObjectHashTables data took   1.30ms
[2020.01.27-11.12.04:262][  0]LogLinker: Warning: While loading 'C:/Users/TheBestOne/Documents/Unreal Projects/MyProject8/Content/Hw12.umap' failed to load '/Game/Hw12_BuiltData': Can't find file.
[2020.01.27-11.12.04:262][  0]LogLinker: Warning: While loading 'C:/Users/TheBestOne/Documents/Unreal Projects/MyProject8/Content/Hw12.umap' failed to load '/Game/Hw12_BuiltData': Can't find file.
[2020.01.27-11.12.04:264][  0]LogLinker: Warning: While loading 'C:/Users/TheBestOne/Documents/Unreal Projects/MyProject8/Content/Hw12.umap' failed to load '/Game/Hw12_BuiltData': Can't find file.
[2020.01.27-11.12.04:264][  0]LogLinker: Warning: While loading 'C:/Users/TheBestOne/Documents/Unreal Projects/MyProject8/Content/Hw12.umap' failed to load '/Game/Hw12_BuiltData': Can't find file.
[2020.01.27-11.12.04:265][  0]LogLinker: Warning: Failed to load '/Game/Hw12_BuiltData': Can't find file.
[2020.01.27-11.12.04:265][  0]LogLinker: Warning: Failed to load '/Game/Hw12_BuiltData': Can't find file.
[2020.01.27-11.12.04:265][  0]LogLinker: Warning: Failed to load '/Game/Hw12_BuiltData': Can't find file.
[2020.01.27-11.12.04:265][  0]LogLinker: Warning: Failed to load '/Game/Hw12_BuiltData': Can't find file.
[2020.01.27-11.12.04:268][  0]LogLinker: Warning: While loading 'C:/Users/TheBestOne/Documents/Unreal Projects/MyProject8/Content/Hw12.umap' failed to load '/Game/Hw12_BuiltData': Can't find file.
[2020.01.27-11.12.04:268][  0]LoadErrors: Failed to load /Game/Hw12_BuiltData.Hw12_BuiltData Referenced by PersistentLevel
[2020.01.27-11.12.04:268][  0]LogLinker: Warning: While loading 'C:/Users/TheBestOne/Documents/Unreal Projects/MyProject8/Content/Hw12.umap' failed to load '/Game/Hw12_BuiltData': Can't find file.
[2020.01.27-11.12.04:268][  0]LoadErrors: Failed to load /Game/Hw12_BuiltData.Hw12_BuiltData Referenced by PersistentLevel
[2020.01.27-11.12.04:278][  0]LogAIModule: Creating AISystem for world Hw12
[2020.01.27-11.12.04:282][  0]LogEditorServer: Finished looking for orphan Actors (0.000 secs)
[2020.01.27-11.12.04:309][  0]LogUObjectHash: Compacting FUObjectHashTables data took   1.62ms
[2020.01.27-11.12.04:309][  0]Cmd: MAP CHECKDEP NOCLEARLOG
[2020.01.27-11.12.04:309][  0]MapCheck: Map check complete: 0 Error(s), 0 Warning(s), took 0,124ms to complete.
[2020.01.27-11.12.04:309][  0]LogFileHelpers: Loading map 'Hw12' took 0.121
[2020.01.27-11.12.04:393][  0]LogSlate: Updating window title bar state: overlay mode, drag disabled, window buttons hidden, title bar hidden
[2020.01.27-11.12.04:398][  0]LogSlate: Updating window title bar state: overlay mode, drag disabled, window buttons hidden, title bar hidden
[2020.01.27-11.12.04:404][  0]LogSlate: Updating window title bar state: overlay mode, drag disabled, window buttons hidden, title bar hidden
[2020.01.27-11.12.04:409][  0]LogSlate: Updating window title bar state: overlay mode, drag disabled, window buttons hidden, title bar hidden
[2020.01.27-11.12.04:413][  0]LogCollectionManager: Loaded 0 collections in 0.000841 seconds
[2020.01.27-11.12.04:417][  0]LogFileCache: Scanning file cache for directory 'C:/Users/TheBestOne/Documents/Unreal Projects/MyProject8/Saved/Collections/' took 0.00s
[2020.01.27-11.12.04:417][  0]LogFileCache: Scanning file cache for directory 'C:/Users/TheBestOne/Documents/Unreal Projects/MyProject8/Content/Developers/TheBestOne/Collections/' took 0.00s
[2020.01.27-11.12.04:417][  0]LogFileCache: Scanning file cache for directory 'C:/Users/TheBestOne/Documents/Unreal Projects/MyProject8/Content/Collections/' took 0.00s
[2020.01.27-11.12.04:417][  0]LogCollectionManager: Rebuilt the GUID cache for 0 collections in 0.000001 seconds
[2020.01.27-11.12.04:424][  0]LogContentBrowser: Native class hierarchy populated in 0.0066 seconds. Added 2863 classes and 680 folders.
[2020.01.27-11.12.04:429][  0]LogContentBrowser: Native class hierarchy updated for 'WidgetCarousel' in 0.0002 seconds. Added 0 classes and 0 folders.
[2020.01.27-11.12.04:469][  0]LogContentBrowser: Native class hierarchy updated for 'AddContentDialog' in 0.0002 seconds. Added 0 classes and 0 folders.
[2020.01.27-11.12.04:472][  0]LogContentBrowser: Native class hierarchy updated for 'SceneOutliner' in 0.0002 seconds. Added 1 classes and 2 folders.
[2020.01.27-11.12.04:519][  0]LogSlate: Took 0.000146 seconds to synchronously load lazily loaded font '../../../Engine/Content/Slate/Fonts/Roboto-Regular.ttf' (155K)
[2020.01.27-11.12.04:520][  0]LogSlate: Took 0.000121 seconds to synchronously load lazily loaded font '../../../Engine/Content/Slate/Fonts/Roboto-Bold.ttf' (160K)
[2020.01.27-11.12.04:523][  0]LogSlate: Took 0.000135 seconds to synchronously load lazily loaded font '../../../Engine/Content/Editor/Slate/Fonts/FontAwesome.ttf' (139K)
[2020.01.27-11.12.04:575][  0]LogRenderer: Reallocating scene render targets to support 1208x576 Format 10 NumSamples 1 (Frame:1).
[2020.01.27-11.12.04:612][  0]LogSlate: Took 0.000140 seconds to synchronously load lazily loaded font '../../../Engine/Content/Slate/Fonts/Roboto-Light.ttf' (167K)
[2020.01.27-11.12.04:671][  0]LogContentBrowser: Native class hierarchy updated for 'HierarchicalLODOutliner' in 0.0002 seconds. Added 0 classes and 0 folders.
[2020.01.27-11.12.04:671][  0]LogLoad: (Engine Initialization) Total time: 5.53 seconds
[2020.01.27-11.12.04:671][  0]LogLoad: (Engine Initialization) Total Blueprint compile time: 0.00 seconds
[2020.01.27-11.12.04:706][  0]LogAssetRegistry: Asset discovery search completed in 3.1360 seconds
[2020.01.27-11.12.04:708][  0]LogCollectionManager: Rebuilt the object cache for 0 collections in 0.000003 seconds (found 0 objects)
[2020.01.27-11.12.04:708][  0]LogCollectionManager: Fixed up redirectors for 0 collections in 0.000034 seconds (updated 0 objects)
[2020.01.27-11.12.04:709][  0]LogContentStreaming: Texture pool size now 1000 MB
[2020.01.27-11.12.04:717][  0]LogSlate: FSceneViewport::OnFocusLost() reason 5
[2020.01.27-11.12.20:847][922]LogSlate: Window 'Message Log' being destroyed
[2020.01.27-11.12.20:851][922]LogSlate: Window 'Message Log' being destroyed
[2020.01.27-11.12.25:427][471]LogSlate: FSceneViewport::OnFocusLost() reason 0
[2020.01.27-11.12.54:666][453]LogSlate: Window 'Source Control Login' being destroyed
[2020.01.27-11.12.57:883][836]LogUObjectHash: Compacting FUObjectHashTables data took   0.55ms
[2020.01.27-11.12.59:680][ 49]LogUObjectHash: Compacting FUObjectHashTables data took   0.55ms
[2020.01.27-11.13.00:902][196]LogEditorViewport: Clicking on Actor (LMB): bp_light_C (bp_light2)
[2020.01.27-11.13.02:856][424]LogUObjectHash: Compacting FUObjectHashTables data took   1.17ms
[2020.01.27-11.13.02:863][424]LogSlate: FSceneViewport::OnFocusLost() reason 5
[2020.01.27-11.13.02:928][424]LogSlate: Took 0.000154 seconds to synchronously load lazily loaded font '../../../Engine/Content/Slate/Fonts/Roboto-Light.ttf' (167K)
[2020.01.27-11.13.02:937][424]Cmd: OBJ SAVEPACKAGE PACKAGE="/Game/Hw12" FILE="C:/Users/TheBestOne/Documents/Unreal Projects/MyProject8/Content/Hw12.umap" SILENT=true AUTOSAVING=false KEEPDIRTY=false
[2020.01.27-11.13.02:959][424]LogUObjectHash: Compacting FUObjectHashTables data took   0.55ms
[2020.01.27-11.13.03:033][424]LogSavePackage: Moving 'C:/Users/TheBestOne/Documents/Unreal Projects/MyProject8/Saved/Hw12DE6B91344F4A19450997FCBF5D1ECDFF.tmp' to 'C:/Users/TheBestOne/Documents/Unreal Projects/MyProject8/Content/Hw12.umap'
[2020.01.27-11.13.03:044][424]LogFileHelpers: Saving map 'Hw12' took 0.107
[2020.01.27-11.13.06:326][816]SourceControl: fatal: F:/Program Files (x86)/a/UE_4.23/Engine/Content: 'F:/Program Files (x86)/a/UE_4.23/Engine/Content' is outside repository
[2020.01.27-11.13.06:417][816]LogPackageName: Error: Illegal call to DoesPackageExist: 'C:/Users/TheBestOne/Documents/Unreal Projects/MyProject8/MyProject8.uproject' is not a standard unreal filename or a long path name. Reason: Path should start with a '/'
[2020.01.27-11.13.06:417][816]LogOutputDevice: Warning: 

Script Stack (0 frames):

[2020.01.27-11.13.07:128][816]LogStats: FPlatformStackWalk::StackWalkAndDump -  0.710 s
[2020.01.27-11.13.07:128][816]LogOutputDevice: Error: === Handled ensure: ===
[2020.01.27-11.13.07:128][816]LogOutputDevice: Error: 
[2020.01.27-11.13.07:128][816]LogOutputDevice: Error: Ensure condition failed: false [File:D:/Build/++UE4/Sync/Engine/Source/Runtime/CoreUObject/Private/Misc/PackageName.cpp] [Line: 849]
[2020.01.27-11.13.07:128][816]LogOutputDevice: Error: Illegal call to DoesPackageExist: 'C:/Users/TheBestOne/Documents/Unreal Projects/MyProject8/MyProject8.uproject' is not a standard unreal filename or a long path name. Reason: Path should start with a '/'
[2020.01.27-11.13.07:128][816]LogOutputDevice: Error: Stack: 
[2020.01.27-11.13.07:128][816]LogOutputDevice: Error: [Callstack] 0x00007ffa03d567c7 UE4Editor-CoreUObject.dll!UnknownFunction []
[2020.01.27-11.13.07:128][816]LogOutputDevice: Error: [Callstack] 0x00007ffa039bd51b UE4Editor-CoreUObject.dll!UnknownFunction []
[2020.01.27-11.13.07:128][816]LogOutputDevice: Error: [Callstack] 0x00007ff9ea5d62e5 UE4Editor-SourceControl.dll!UnknownFunction []
[2020.01.27-11.13.07:128][816]LogOutputDevice: Error: [Callstack] 0x00007ff9ea5d643c UE4Editor-SourceControl.dll!UnknownFunction []
[2020.01.27-11.13.07:128][816]LogOutputDevice: Error: [Callstack] 0x00007ff9e78ee605 UE4Editor-SourceControlWindows.dll!UnknownFunction []
[2020.01.27-11.13.07:128][816]LogOutputDevice: Error: [Callstack] 0x00007ff9e78a99dd UE4Editor-SourceControlWindows.dll!UnknownFunction []
[2020.01.27-11.13.07:128][816]LogOutputDevice: Error: [Callstack] 0x00007ff9e78a922a UE4Editor-SourceControlWindows.dll!UnknownFunction []
[2020.01.27-11.13.07:128][816]LogOutputDevice: Error: [Callstack] 0x00007ff9e78c0246 UE4Editor-SourceControlWindows.dll!UnknownFunction []
[2020.01.27-11.13.07:128][816]LogOutputDevice: Error: [Callstack] 0x00007ff9dc35b363 UE4Editor-GitSourceControl.dll!UnknownFunction []
[2020.01.27-11.13.07:128][816]LogOutputDevice: Error: [Callstack] 0x00007ff9dc35fe01 UE4Editor-GitSourceControl.dll!UnknownFunction []
[2020.01.27-11.13.07:128][816]LogOutputDevice: Error: [Callstack] 0x00007ff9ea5dae09 UE4Editor-SourceControl.dll!UnknownFunction []
[2020.01.27-11.13.07:128][816]LogOutputDevice: Error: [Callstack] 0x00007ff9ed3de85d UE4Editor-UnrealEd.dll!UnknownFunction []
[2020.01.27-11.13.07:128][816]LogOutputDevice: Error: [Callstack] 0x00007ff9edc35296 UE4Editor-UnrealEd.dll!UnknownFunction []
[2020.01.27-11.13.07:128][816]LogOutputDevice: Error: [Callstack] 0x00007ff71acf7b0a UE4Editor.exe!UnknownFunction []
[2020.01.27-11.13.07:128][816]LogOutputDevice: Error: [Callstack] 0x00007ff71ad0a91c UE4Editor.exe!UnknownFunction []
[2020.01.27-11.13.07:128][816]LogOutputDevice: Error: [Callstack] 0x00007ff71ad0a9fa UE4Editor.exe!UnknownFunction []
[2020.01.27-11.13.07:128][816]LogOutputDevice: Error: [Callstack] 0x00007ff71ad1b92c UE4Editor.exe!UnknownFunction []
[2020.01.27-11.13.07:128][816]LogOutputDevice: Error: [Callstack] 0x00007ff71ad1e60e UE4Editor.exe!UnknownFunction []
[2020.01.27-11.13.07:128][816]LogOutputDevice: Error: [Callstack] 0x00007ffa4ec87bd4 KERNEL32.DLL!UnknownFunction []
[2020.01.27-11.13.07:128][816]LogOutputDevice: Error: [Callstack] 0x00007ffa505eced1 ntdll.dll!UnknownFunction []
[2020.01.27-11.13.07:128][816]LogOutputDevice: Error: 
[2020.01.27-11.13.07:130][816]LogStats:                SubmitErrorReport -  0.000 s
